{
  "success": true,
  "data": [
    {
      "concept_id": 201826,
      "concept_name": "Type 2 diabetes mellitus",
      "domain_id": "Condition",
      "vocabulary_id": "SNOMED",
      "concept_class_id": "Clinical Finding",
      "standard_concept": "S",
      "concept_code": "44054006",
      "score": 0.95
    },
    {
      "concept_id": 443238,
      "concept_name": "Diabetic retinopathy due to type 2 diabetes mellitus",
      "domain_id": "Condition",
      "vocabulary_id": "SNOMED",
      "concept_class_id": "Clinical Finding",
      "standard_concept": "S",
      "concept_code": "422034002",
      "score": 0.82
    },
    {
      "concept_id": 4193704,
      "concept_name": "Type 2 diabetes mellitus without complication",
      "domain_id": "Condition",
      "vocabulary_id": "SNOMED",
      "concept_class_id": "Clinical Finding",
      "standard_concept": "S",
      "concept_code": "313436004",
      "score": 0.78
    }
  ],
  "meta": {
    "pagination": {
      "page": 1,
      "page_size": 10,
      "total_items": 42,
      "total_pages": 5,
      "has_next": true,
      "has_previous": false
    },
    "execution_time_ms": 45
  }
}
